<?xml version="1.0" encoding="UTF-8"?>
<svg width="124px" height="124px" viewBox="0 0 124 124" version="1.1" xmlns="http://www.w3.org/2000/svg" xmlns:xlink="http://www.w3.org/1999/xlink">
    <!-- Generator: sketchtool 54.1 (76490) - https://sketchapp.com -->
    <title>106C71AA-8455-4BD5-A4A7-26B09636735E</title>
    <desc>Created with sketchtool.</desc>
    <defs>
        <circle id="path-1" cx="84" cy="56" r="56"></circle>
        <filter x="-8.3%" y="-6.5%" width="116.5%" height="116.5%" filterUnits="objectBoundingBox" id="filter-2">
            <feMorphology radius="2.25000009" operator="dilate" in="SourceAlpha" result="shadowSpreadOuter1"></feMorphology>
            <feOffset dx="0" dy="2" in="shadowSpreadOuter1" result="shadowOffsetOuter1"></feOffset>
            <feGaussianBlur stdDeviation="2" in="shadowOffsetOuter1" result="shadowBlurOuter1"></feGaussianBlur>
            <feComposite in="shadowBlurOuter1" in2="SourceAlpha" operator="out" result="shadowBlurOuter1"></feComposite>
            <feColorMatrix values="0 0 0 0 0   0 0 0 0 0   0 0 0 0 0  0 0 0 0.102751359 0" type="matrix" in="shadowBlurOuter1"></feColorMatrix>
        </filter>
    </defs>
    <g id="escritorio" stroke="none" stroke-width="1" fill="none" fill-rule="evenodd">
        <g id="pyme-simulador-indicadores-financieros" transform="translate(-409.000000, -793.000000)">
            <g id="contenido" transform="translate(0.000000, 689.000000)">
                <g id="simulador">
                    <g id="pasos-simulador" transform="translate(0.000000, 108.000000)">
                        <g id="th-simulador" transform="translate(387.000000, 0.000000)">
                            <g id="Oval">
                                <use fill="black" fill-opacity="1" filter="url(#filter-2)" xlink:href="#path-1"></use>
                                <use stroke="#FFFFFF" stroke-width="4.50000018" fill="#FFD200" fill-rule="evenodd" xlink:href="#path-1"></use>
                            </g>
                        </g>
                    </g>
                </g>
            </g>
        </g>
    </g>
</svg>