<svg xmlns="http://www.w3.org/2000/svg" width="48" height="48" viewBox="0 0 48 48">
    <g fill="none" fill-rule="evenodd">
        <path fill="#FFD200" d="M39.078 24.05l-5.288 4.798 2.122 12.321-11.107-5.818L13.7 41.17l1.629-8.491-.165.06.562-3.264-8.985-8.727 12.417-1.798L24.71 7.74l5.553 11.21 12.417 1.798-3.282 3.187-.32.116z"/>
        <path stroke="#58595B" stroke-linecap="round" stroke-linejoin="round" stroke-width="1.5" d="M35.775 24.024l-3.82 3.71 2.122 12.321-11.107-5.818-11.106 5.818 1.156-6.718m.403-2.34l.562-3.263L5 19.008l12.417-1.798L22.97 6l5.553 11.21 12.417 1.798-3.282 3.186"/>
    </g>
</svg>
